{
  "packages": [
    "packages/*"
  ],
  "version": "independent",
  "command": {
    "publish": {
      "conventionalCommits": true,
      "message": "chore(release): publish %s [skip ci]"
    }
  }
}
